# Author: leach.jacob@gmail.com (Jacob Leach)
# This file was automatically generated by a program written by Jacob Leach.

newmtl Material0
map_kd textures/whiteTextures3/texture0.jpg
Ka 1 1 1
Ks 0.900000 0.900000 0.900000
Ns 1
d 1.0

newmtl Material1
map_kd textures/blackTextures3/texture0.jpg
Ka .5 .5 .5
Ks 0.900000 0.900000 0.900000
Ns 1
d 1.0

newmtl Material2
map_kd textures/whiteTextures3/texture1.jpg
Ka 1 1 1
Ks 0.900000 0.900000 0.900000
Ns 1
d 1.0

newmtl Material3
map_kd textures/blackTextures3/texture1.jpg
Ka .5 .5 .5
Ks 0.900000 0.900000 0.900000
Ns 1
d 1.0

newmtl Material4
map_kd textures/whiteTextures3/texture2.jpg
Ka 1 1 1
Ks 0.900000 0.900000 0.900000
Ns 1
d 1.0

newmtl Material5
map_kd textures/blackTextures3/texture2.jpg
Ka .5 .5 .5
Ks 0.900000 0.900000 0.900000
Ns 1
d 1.0

newmtl Material6
map_kd textures/whiteTextures3/texture3.jpg
Ka 1 1 1
Ks 0.900000 0.900000 0.900000
Ns 1
d 1.0

newmtl Material7
map_kd textures/blackTextures3/texture3.jpg
Ka .5 .5 .5
Ks 0.900000 0.900000 0.900000
Ns 1
d 1.0

newmtl Material8
map_kd textures/blackTextures3/texture4.jpg
Ka .5 .5 .5
Ks 0.900000 0.900000 0.900000
Ns 1
d 1.0

newmtl Material9
map_kd textures/whiteTextures3/texture4.jpg
Ka 1 1 1
Ks 0.900000 0.900000 0.900000
Ns 1
d 1.0

newmtl Material10
map_kd textures/blackTextures3/texture5.jpg
Ka .5 .5 .5
Ks 0.900000 0.900000 0.900000
Ns 1
d 1.0

newmtl Material11
map_kd textures/whiteTextures3/texture5.jpg
Ka 1 1 1
Ks 0.900000 0.900000 0.900000
Ns 1
d 1.0

newmtl Material12
map_kd textures/blackTextures3/texture6.jpg
Ka .5 .5 .5
Ks 0.900000 0.900000 0.900000
Ns 1
d 1.0

newmtl Material13
map_kd textures/whiteTextures3/texture6.jpg
Ka 1 1 1
Ks 0.900000 0.900000 0.900000
Ns 1
d 1.0

newmtl Material14
map_kd textures/blackTextures3/texture7.jpg
Ka .5 .5 .5
Ks 0.900000 0.900000 0.900000
Ns 1
d 1.0

newmtl Material15
map_kd textures/whiteTextures3/texture7.jpg
Ka 1 1 1
Ks 0.900000 0.900000 0.900000
Ns 1
d 1.0

newmtl Material16
map_kd textures/whiteTextures3/texture8.jpg
Ka 1 1 1
Ks 0.900000 0.900000 0.900000
Ns 1
d 1.0

newmtl Material17
map_kd textures/blackTextures3/texture8.jpg
Ka .5 .5 .5
Ks 0.900000 0.900000 0.900000
Ns 1
d 1.0

newmtl Material18
map_kd textures/whiteTextures3/texture9.jpg
Ka 1 1 1
Ks 0.900000 0.900000 0.900000
Ns 1
d 1.0

newmtl Material19
map_kd textures/blackTextures3/texture9.jpg
Ka .5 .5 .5
Ks 0.900000 0.900000 0.900000
Ns 1
d 1.0

newmtl Material20
map_kd textures/whiteTextures3/texture10.jpg
Ka 1 1 1
Ks 0.900000 0.900000 0.900000
Ns 1
d 1.0

newmtl Material21
map_kd textures/blackTextures3/texture10.jpg
Ka .5 .5 .5
Ks 0.900000 0.900000 0.900000
Ns 1
d 1.0

newmtl Material22
map_kd textures/whiteTextures3/texture11.jpg
Ka 1 1 1
Ks 0.900000 0.900000 0.900000
Ns 1
d 1.0

newmtl Material23
map_kd textures/blackTextures3/texture11.jpg
Ka .5 .5 .5
Ks 0.900000 0.900000 0.900000
Ns 1
d 1.0

newmtl Material24
map_kd textures/blackTextures3/texture12.jpg
Ka .5 .5 .5
Ks 0.900000 0.900000 0.900000
Ns 1
d 1.0

newmtl Material25
map_kd textures/whiteTextures3/texture12.jpg
Ka 1 1 1
Ks 0.900000 0.900000 0.900000
Ns 1
d 1.0

newmtl Material26
map_kd textures/blackTextures3/texture13.jpg
Ka .5 .5 .5
Ks 0.900000 0.900000 0.900000
Ns 1
d 1.0

newmtl Material27
map_kd textures/whiteTextures3/texture13.jpg
Ka 1 1 1
Ks 0.900000 0.900000 0.900000
Ns 1
d 1.0

newmtl Material28
map_kd textures/blackTextures3/texture14.jpg
Ka .5 .5 .5
Ks 0.900000 0.900000 0.900000
Ns 1
d 1.0

newmtl Material29
map_kd textures/whiteTextures3/texture14.jpg
Ka 1 1 1
Ks 0.900000 0.900000 0.900000
Ns 1
d 1.0

newmtl Material30
map_kd textures/blackTextures3/texture15.jpg
Ka .5 .5 .5
Ks 0.900000 0.900000 0.900000
Ns 1
d 1.0

newmtl Material31
map_kd textures/whiteTextures3/texture15.jpg
Ka 1 1 1
Ks 0.900000 0.900000 0.900000
Ns 1
d 1.0

newmtl Material32
map_kd textures/whiteTextures3/texture16.jpg
Ka 1 1 1
Ks 0.900000 0.900000 0.900000
Ns 1
d 1.0

newmtl Material33
map_kd textures/blackTextures3/texture16.jpg
Ka .5 .5 .5
Ks 0.900000 0.900000 0.900000
Ns 1
d 1.0

newmtl Material34
map_kd textures/whiteTextures3/texture17.jpg
Ka 1 1 1
Ks 0.900000 0.900000 0.900000
Ns 1
d 1.0

newmtl Material35
map_kd textures/blackTextures3/texture17.jpg
Ka .5 .5 .5
Ks 0.900000 0.900000 0.900000
Ns 1
d 1.0

newmtl Material36
map_kd textures/whiteTextures3/texture18.jpg
Ka 1 1 1
Ks 0.900000 0.900000 0.900000
Ns 1
d 1.0

newmtl Material37
map_kd textures/blackTextures3/texture18.jpg
Ka .5 .5 .5
Ks 0.900000 0.900000 0.900000
Ns 1
d 1.0

newmtl Material38
map_kd textures/whiteTextures3/texture19.jpg
Ka 1 1 1
Ks 0.900000 0.900000 0.900000
Ns 1
d 1.0

newmtl Material39
map_kd textures/blackTextures3/texture19.jpg
Ka .5 .5 .5
Ks 0.900000 0.900000 0.900000
Ns 1
d 1.0

newmtl Material40
map_kd textures/blackTextures3/texture20.jpg
Ka .5 .5 .5
Ks 0.900000 0.900000 0.900000
Ns 1
d 1.0

newmtl Material41
map_kd textures/whiteTextures3/texture20.jpg
Ka 1 1 1
Ks 0.900000 0.900000 0.900000
Ns 1
d 1.0

newmtl Material42
map_kd textures/blackTextures3/texture21.jpg
Ka .5 .5 .5
Ks 0.900000 0.900000 0.900000
Ns 1
d 1.0

newmtl Material43
map_kd textures/whiteTextures3/texture21.jpg
Ka 1 1 1
Ks 0.900000 0.900000 0.900000
Ns 1
d 1.0

newmtl Material44
map_kd textures/blackTextures3/texture22.jpg
Ka .5 .5 .5
Ks 0.900000 0.900000 0.900000
Ns 1
d 1.0

newmtl Material45
map_kd textures/whiteTextures3/texture22.jpg
Ka 1 1 1
Ks 0.900000 0.900000 0.900000
Ns 1
d 1.0

newmtl Material46
map_kd textures/blackTextures3/texture23.jpg
Ka .5 .5 .5
Ks 0.900000 0.900000 0.900000
Ns 1
d 1.0

newmtl Material47
map_kd textures/whiteTextures3/texture23.jpg
Ka 1 1 1
Ks 0.900000 0.900000 0.900000
Ns 1
d 1.0

newmtl Material48
map_kd textures/whiteTextures3/texture24.jpg
Ka 1 1 1
Ks 0.900000 0.900000 0.900000
Ns 1
d 1.0

newmtl Material49
map_kd textures/blackTextures3/texture24.jpg
Ka .5 .5 .5
Ks 0.900000 0.900000 0.900000
Ns 1
d 1.0

newmtl Material50
map_kd textures/whiteTextures3/texture25.jpg
Ka 1 1 1
Ks 0.900000 0.900000 0.900000
Ns 1
d 1.0

newmtl Material51
map_kd textures/blackTextures3/texture25.jpg
Ka .5 .5 .5
Ks 0.900000 0.900000 0.900000
Ns 1
d 1.0

newmtl Material52
map_kd textures/whiteTextures3/texture26.jpg
Ka 1 1 1
Ks 0.900000 0.900000 0.900000
Ns 1
d 1.0

newmtl Material53
map_kd textures/blackTextures3/texture26.jpg
Ka .5 .5 .5
Ks 0.900000 0.900000 0.900000
Ns 1
d 1.0

newmtl Material54
map_kd textures/whiteTextures3/texture27.jpg
Ka 1 1 1
Ks 0.900000 0.900000 0.900000
Ns 1
d 1.0

newmtl Material55
map_kd textures/blackTextures3/texture27.jpg
Ka .5 .5 .5
Ks 0.900000 0.900000 0.900000
Ns 1
d 1.0

newmtl Material56
map_kd textures/blackTextures3/texture28.jpg
Ka .5 .5 .5
Ks 0.900000 0.900000 0.900000
Ns 1
d 1.0

newmtl Material57
map_kd textures/whiteTextures3/texture28.jpg
Ka 1 1 1
Ks 0.900000 0.900000 0.900000
Ns 1
d 1.0

newmtl Material58
map_kd textures/blackTextures3/texture29.jpg
Ka .5 .5 .5
Ks 0.900000 0.900000 0.900000
Ns 1
d 1.0

newmtl Material59
map_kd textures/whiteTextures3/texture29.jpg
Ka 1 1 1
Ks 0.900000 0.900000 0.900000
Ns 1
d 1.0

newmtl Material60
map_kd textures/blackTextures3/texture30.jpg
Ka .5 .5 .5
Ks 0.900000 0.900000 0.900000
Ns 1
d 1.0

newmtl Material61
map_kd textures/whiteTextures3/texture30.jpg
Ka 1 1 1
Ks 0.900000 0.900000 0.900000
Ns 1
d 1.0

newmtl Material62
map_kd textures/blackTextures3/texture31.jpg
Ka .5 .5 .5
Ks 0.900000 0.900000 0.900000
Ns 1
d 1.0

newmtl Material63
map_kd textures/whiteTextures3/texture31.jpg
Ka 1 1 1
Ks 0.900000 0.900000 0.900000
Ns 1
d 1.0

