# Author: leach.jacob@gmail.com (Jacob Leach)
# This file was automatically generated by a program written by Jacob Leach.

newmtl Material
map_kd textures/whiteTextures3/texture3.jpg
Ka .5 .5 .5
Ks 0.900000 0.900000 0.900000
Ns 1
d 1.0

