# Author: leach.jacob@gmail.com (Jacob Leach)

o King 

v -0.25 0.00  0.25
v -0.25 0.00 -0.25
v  0.25 0.00 -0.25
v  0.25 0.00  0.25
v -0.25 0.75  0.25
v -0.25 0.75 -0.25
v  0.25 0.75 -0.25
v  0.25 0.75  0.25

v -0.20 0.75  0.20
v -0.20 0.75 -0.20
v  0.20 0.75 -0.20
v  0.20 0.75  0.20
v -0.20 0.85  0.20
v -0.20 0.85 -0.20
v  0.20 0.85 -0.20
v  0.20 0.85  0.20

v -0.15 0.85  0.15
v -0.15 0.85 -0.15
v  0.15 0.85 -0.15
v  0.15 0.85  0.15
v -0.15 0.95  0.15
v -0.15 0.95 -0.15
v  0.15 0.95 -0.15
v  0.15 0.95  0.15

vt 0.000000  0.000000
vt 1.000000  0.000000
vt 1.000000  1.000000
vt 0.000000  1.000000
usemtl Material
s on

f 5/1 6/2 2/3 1/4
f 6/1 7/2 3/3 2/4
f 7/1 8/2 4/3 3/4
f 8/1 5/2 1/3 4/4
f 1/1 2/2 3/3 4/4
f 8/1 7/2 6/3 5/4

f 13/1 14/2 10/3 9/4
f 14/1 15/2 11/3 10/4
f 15/1 16/2 12/3 11/4
f 16/1 13/2 9/3 12/4
f 9/1 10/2 11/3 12/4
f 16/1 15/2 14/3 13/4

f 21/1 22/2 18/3 17/4
f 22/1 23/2 19/3 18/4
f 23/1 24/2 20/3 19/4
f 24/1 21/2 17/3 20/4
f 17/1 18/2 19/3 20/4
f 24/1 23/2 22/3 21/4
